{
    "name": "Metal Elephant Toy",
    "description": "The metal elephant toy is a traditional cultural artifact originating from the Indian state of Gujarat. Made from metal, these toys are typically handcrafted and come in a variety of sizes, ranging from small keychains to large decorative pieces. The intricate details on these toys make them unique and visually appealing, and they are often used as decorations in homes or as souvenirs for tourists. The elephant is a revered animal in Hindu culture.",
    "image": "https://indicultre.netlify.app/arts/28.png"
  }